{
  "development": {
    "username": "todo_api",
    "password": null,
    "database": "todo_api_dev",
    "host": "127.0.0.1",
    "port": 5432,
    "dialect": "postgres"
  },
  "test": {
    "username": "root",
    "password": null,
    "database": "todo-api-test",
    "host": "127.0.0.1",
    "port": 5432,
    "dialect": "postgres"
  },
  "production": {
    "use_env_variable": "DATABASE_URL"
  }
}
